<?xml version="1.0" encoding="UTF-8"?>
<session version="1.0">
<refactoring comment="Delete resource &apos;Bancos de Dados&apos;" deleteContents="false" description="Delete resource &apos;Bancos de Dados&apos;" element1="/Bancos de Dados" flags="7" id="org.eclipse.ltk.core.refactoring.delete.resources" resources="1" stamp="1434374295255"/>
</session>